Gov 50 Final Project
…
Intial Code Scrubbing and Organizing

library(tidyverse)
library(ggplot2)

rawgdp <- read_csv("data/bea-gdp-by-state.csv")
rawschools <- read_csv("data/ELSI_csv_export_finance2.csv")

gdp <- rawgdp |>
  select(Fips, Area, "2017") |>
  rename("GDP per Capita" = "2017")

gdp

# A tibble: 60 × 3
    Fips Area                 `GDP per Capita`
   <dbl> <chr>                           <dbl>
 1     0 United States                   51337
 2  1000 Alabama                         37508
 3  2000 Alaska                          63610
 4  4000 Arizona                         39583
 5  5000 Arkansas                        36714
 6  6000 California                      60359
 7  8000 Colorado                        54026
 8  9000 Connecticut                     62633
 9 10000 Delaware                        63955
10 11000 District of Columbia           159607
# ℹ 50 more rows

schools <- rawschools |>
  select("Area", "Total Revenues (TR) per Pupil (MEMBR) [State Finance] 2016-17")|>
  rename("Spending per Student" = `Total Revenues (TR) per Pupil (MEMBR) [State Finance] 2016-17`)

schools

# A tibble: 51 × 2
   Area                 `Spending per Student`
   <chr>                                 <dbl>
 1 Alabama                               10590
 2 Alaska                                18897
 3 Arizona                                9214
 4 Arkansas                              11388
 5 California                            13965
 6 Colorado                              11713
 7 Connecticut                           21647
 8 Delaware                              20035
 9 District of Columbia                  29425
10 Florida                               10227
# ℹ 41 more rows
…
Analysis

gdp_schools <- left_join(gdp, schools, by = "Area")

gdp_schools

# A tibble: 60 × 4
    Fips Area                 `GDP per Capita` `Spending per Student`
   <dbl> <chr>                           <dbl>                  <dbl>
 1     0 United States                   51337                     NA
 2  1000 Alabama                         37508                  10590
 3  2000 Alaska                          63610                  18897
 4  4000 Arizona                         39583                   9214
 5  5000 Arkansas                        36714                  11388
 6  6000 California                      60359                  13965
 7  8000 Colorado                        54026                  11713
 8  9000 Connecticut                     62633                  21647
 9 10000 Delaware                        63955                  20035
10 11000 District of Columbia           159607                  29425
# ℹ 50 more rows
…
